<?xml version="1.0" encoding="utf-8"?>
<!-- Generator: Adobe Illustrator 19.1.0, SVG Export Plug-In . SVG Version: 6.00 Build 0)  -->
<svg version="1.0" id="Layer_1" xmlns="http://www.w3.org/2000/svg" xmlns:xlink="http://www.w3.org/1999/xlink" x="0px" y="0px"
	 viewBox="0 0 256 256" enable-background="new 0 0 256 256" xml:space="preserve">
<g>
	<polygon fill="#FFFFFF" points="232,188 128,248 24,188 24,68 128,8 232,68 	"/>
	<polygon fill="#E9E9E9" points="232,188 128,248 128,8 232,68 	"/>
	<polygon fill="#D73F45" points="24,68 24,188 73.355,216.475 73.355,39.525 	"/>
	<polygon fill="#D02228" points="182.645,216.475 232,188 232,68 182.645,39.525 	"/>
	<g>
		<path fill="#D73F45" d="M128,86.711l-6.777,13.639c-0.793,1.482-2.112,1.346-3.532,0.518l-5.001-2.74l3.791,20.949
			c0.79,3.826-1.737,3.826-2.99,2.174l-8.809-10.346l-1.429,5.252c-0.167,0.691-0.89,1.414-1.98,1.242l-11.147-2.453l2.93,11.152
			c0.627,2.486,1.115,3.51-0.634,4.166l-3.973,1.957l19.19,16.338c0.759,0.617,1.145,1.729,0.872,2.736l-1.678,5.777
			c6.606-0.801,12.529-1.516,19.139-2.31c0.585-0.01,1.561,0.93,1.556,1.637l-0.876,21.58H128V86.715V86.711z"/>
		<path fill="#D02228" d="M129.36,156.447c-0.006-0.709,0.878-1.488,1.466-1.476c6.607,0.795,12.532,1.404,19.139,2.205l-1.68-5.83
			c-0.269-1.008,0.113-2.145,0.873-2.764l19.189-16.348l-3.971-1.963c-1.753-0.656-1.261-1.685-0.636-4.17l2.929-11.156
			l-11.147,2.455c-1.09,0.17-1.814-0.553-1.979-1.244l-1.431-5.252l-8.817,10.346c-1.253,1.652-3.795,1.652-3.002-2.174
			l3.764-20.949l-5.051,2.74c-1.419,0.828-3.035,0.965-3.829-0.518L128,86.715v91.264h1.866L129.36,156.447z"/>
	</g>
</g>
</svg>
