<?xml version="1.0" encoding="utf-8"?>
<!-- Generator: Adobe Illustrator 19.1.0, SVG Export Plug-In . SVG Version: 6.00 Build 0)  -->
<svg version="1.0" id="Layer_1" xmlns="http://www.w3.org/2000/svg" xmlns:xlink="http://www.w3.org/1999/xlink" x="0px" y="0px"
	 viewBox="0 0 256 256" enable-background="new 0 0 256 256" xml:space="preserve">
<g>
	<g>
		<polygon fill="#155EAC" points="232,188 128,248 24,188 24,68 128,8 232,68 		"/>
		<polygon fill="#004FA4" points="232,188 128,248 128,8 232,68 		"/>
	</g>
	<polygon fill="#FFFFFF" points="149.152,235.797 128,248 106.848,235.797 106.848,20.203 128,8 149.152,20.203 	"/>
	<polygon fill="#E9E9E9" points="149.152,235.797 128,248 128,8 149.152,20.203 	"/>
	<rect x="24" y="105.723" fill="#FFFFFF" width="208" height="42.41"/>
	<rect x="128" y="105.723" fill="#E9E9E9" width="104" height="42.41"/>
	<polygon fill="#FFFFFF" points="232,174.594 232,188 217.84,196.168 24,79.258 24,68 39.984,58.781 	"/>
	<polygon fill="#E9E9E9" points="232,174.594 232,188 217.84,196.168 119.953,137.133 137.203,117.422 	"/>
	<polygon fill="#FFFFFF" points="24,174.594 24,188 38.16,196.168 232,79.258 232,68 216.02,58.781 119.953,116.723 	"/>
	<polygon fill="#E9E9E9" points="134.645,137.977 232,79.258 232,68 216.02,58.781 119.953,116.723 	"/>
	<rect x="24" y="112.793" fill="#D73F45" width="208" height="28.27"/>
	<rect x="128" y="112.793" fill="#D02228" width="104" height="28.27"/>
	<polygon fill="#D73F45" points="142.102,239.863 128,248 113.898,239.863 113.898,16.137 128,8 142.102,16.137 	"/>
	<polygon fill="#D02228" points="142.102,239.863 128,248 128,8 142.102,16.137 	"/>
	<polygon fill="#D02228" points="221.043,61.68 149.152,105.133 165.68,105.133 229.082,66.316 	"/>
	<polygon fill="#D73F45" points="32.34,192.813 106.523,147.539 89.957,147.539 24,186.414 24,188 	"/>
	<polygon fill="#D73F45" points="28.82,65.223 94.508,105.133 77.512,105.133 24,72.684 24,68 	"/>
	<polygon fill="#D02228" points="229.367,189.52 160.172,147.539 176.547,147.539 232,181.246 232,188 	"/>
</g>
</svg>
