<?xml version="1.0" encoding="utf-8"?>
<!-- Generator: Adobe Illustrator 19.1.0, SVG Export Plug-In . SVG Version: 6.00 Build 0)  -->
<svg version="1.0" id="Layer_1" xmlns="http://www.w3.org/2000/svg" xmlns:xlink="http://www.w3.org/1999/xlink" x="0px" y="0px"
	 viewBox="0 0 256 256" enable-background="new 0 0 256 256" xml:space="preserve">
<g>
	<rect x="24" y="135.146" fill="#FFFFFF" width="104" height="17.674"/>
	<rect x="24" y="152.82" fill="#D73F45" width="104" height="17.672"/>
	<polygon fill="#FFFFFF" points="128,170.492 24,170.492 24,187.773 27.853,189.934 128,189.934 	"/>
	<polygon fill="#D73F45" points="128,189.934 27.853,189.934 61.233,209.373 128,209.373 	"/>
	<polygon fill="#FFFFFF" points="128,209.373 61.233,209.373 94.617,228.814 128,228.814 	"/>
	<polygon fill="#D73F45" points="94.617,228.814 128,248 128,228.814 	"/>
	<g>
		<polygon fill="#D02228" points="128,27.342 161.839,27.342 130.169,9.025 128,8 		"/>
		<polygon fill="#E9E9E9" points="195.53,46.781 161.839,27.342 128,27.342 128,46.781 		"/>
		<polygon fill="#D02228" points="128,46.781 128,64.455 226.157,64.455 195.53,46.781 		"/>
		<polygon fill="#E9E9E9" points="128,82.127 232,82.127 232,67.748 226.157,64.455 128,64.455 		"/>
		<rect x="128" y="82.127" fill="#D02228" width="104" height="17.674"/>
		<rect x="128" y="99.801" fill="#E9E9E9" width="104" height="17.674"/>
		<rect x="128" y="117.475" fill="#D02228" width="104" height="17.672"/>
	</g>
	<polygon fill="#155EAC" points="125.831,8.988 94.161,27.262 60.47,46.701 29.843,64.375 24,67.748 24,82.049 24,99.721 
		24,117.395 24,135.146 128,135.146 128,117.395 128,99.721 128,82.049 128,64.375 128,46.701 128,27.262 128,8 	"/>
	<rect x="128" y="135.146" fill="#E9E9E9" width="104" height="17.674"/>
	<rect x="128" y="152.82" fill="#D02228" width="104" height="17.672"/>
	<polygon fill="#E9E9E9" points="128,189.934 228.147,189.934 232,187.773 232,170.492 128,170.492 	"/>
	<polygon fill="#D02228" points="128,209.373 194.767,209.373 228.147,189.934 128,189.934 	"/>
	<polygon fill="#E9E9E9" points="128,228.814 161.382,228.814 194.767,209.373 128,209.373 	"/>
	<polygon fill="#D02228" points="128,228.814 128,248 161.382,228.814 	"/>
	<g>
		<polygon fill="#FFFFFF" points="125.138,122.775 120.191,122.775 118.667,117.66 117.142,122.775 112.199,122.775 
			116.198,126.285 114.673,131.57 118.668,128.494 122.667,131.701 121.141,126.262 		"/>
		<polygon fill="#FFFFFF" points="92.398,122.775 90.871,117.66 89.348,122.775 84.405,122.775 88.404,126.285 86.878,131.57 
			90.873,128.494 94.873,131.701 93.347,126.262 97.342,122.775 		"/>
		<polygon fill="#FFFFFF" points="64.58,122.775 63.054,117.66 61.53,122.775 56.588,122.775 60.587,126.285 59.06,131.57 
			63.055,128.494 67.056,131.701 65.527,126.262 69.524,122.775 		"/>
		<polygon fill="#FFFFFF" points="36.735,122.775 35.208,117.66 33.685,122.775 28.742,122.775 32.741,126.285 31.213,131.57 
			35.21,128.494 39.21,131.701 37.684,126.262 41.679,122.775 		"/>
		<polygon fill="#FFFFFF" points="50.616,110.404 49.09,105.289 47.566,110.404 42.624,110.404 46.623,113.617 45.094,118.758 
			49.091,115.605 53.092,118.779 51.564,113.615 55.561,110.404 		"/>
		<polygon fill="#FFFFFF" points="78.415,110.404 76.889,105.289 75.365,110.404 70.423,110.404 74.422,113.617 72.895,118.758 
			76.892,115.605 80.891,118.779 79.363,113.615 83.36,110.404 		"/>
		<polygon fill="#FFFFFF" points="106.248,110.404 104.722,105.289 103.198,110.404 98.254,110.404 102.253,113.617 
			100.727,118.758 104.724,115.605 108.722,118.779 107.195,113.615 111.192,110.404 		"/>
		<polygon fill="#FFFFFF" points="49.09,78.779 47.566,83.895 42.624,83.895 46.623,87.439 45.094,92.746 49.091,89.676 
			53.092,92.891 51.564,87.416 55.561,83.895 50.616,83.895 		"/>
		<polygon fill="#FFFFFF" points="76.889,78.779 75.365,83.895 70.423,83.895 74.422,87.439 72.895,92.746 76.892,89.676 
			80.891,92.891 79.363,87.416 83.36,83.895 78.415,83.895 		"/>
		<polygon fill="#FFFFFF" points="104.722,78.779 103.198,83.895 98.254,83.895 102.253,87.439 100.727,92.746 104.724,89.676 
			108.722,92.891 107.195,87.416 111.192,83.895 106.248,83.895 		"/>
		<polygon fill="#FFFFFF" points="49.09,54.037 47.566,59.152 42.624,59.152 46.623,62.148 45.094,67.182 49.091,63.975 
			53.092,67.119 51.564,62.158 55.561,59.152 50.616,59.152 		"/>
		<polygon fill="#FFFFFF" points="76.889,54.037 75.365,59.152 70.423,59.152 74.422,62.148 72.895,67.182 76.892,63.975 
			80.891,67.119 79.363,62.158 83.36,59.152 78.415,59.152 		"/>
		<polygon fill="#FFFFFF" points="104.722,54.037 103.198,59.152 98.254,59.152 102.253,62.148 100.727,67.182 104.724,63.975 
			108.722,67.119 107.195,62.158 111.192,59.152 106.248,59.152 		"/>
		<polygon fill="#FFFFFF" points="104.722,27.527 103.198,32.643 98.254,32.643 102.253,35.916 100.727,41.086 104.724,37.949 
			108.722,41.127 107.195,35.91 111.192,32.643 106.248,32.643 		"/>
		<polygon fill="#FFFFFF" points="114.671,105.852 118.668,102.689 122.667,105.852 121.141,100.967 125.138,98.033 120.191,98.033 
			118.667,92.918 117.142,98.033 112.199,98.033 116.198,100.967 		"/>
		<polygon fill="#FFFFFF" points="86.826,105.852 90.823,102.689 94.821,105.852 93.295,100.967 97.292,98.033 92.347,98.033 
			90.821,92.918 89.296,98.033 84.354,98.033 88.353,100.967 		"/>
		<polygon fill="#FFFFFF" points="63.059,92.918 61.533,98.033 56.591,98.033 60.59,100.967 59.063,105.969 63.061,102.744 
			67.059,105.883 65.532,100.98 69.529,98.033 64.584,98.033 		"/>
		<polygon fill="#FFFFFF" points="35.213,92.918 33.688,98.033 28.748,98.033 32.745,100.967 31.22,105.969 35.217,102.744 
			39.214,105.883 37.688,100.98 41.686,98.033 36.74,98.033 		"/>
		<polygon fill="#FFFFFF" points="114.671,79.895 118.668,76.732 122.667,79.895 121.141,74.734 125.138,71.523 120.191,71.523 
			118.667,66.408 117.142,71.523 112.199,71.523 116.198,74.734 		"/>
		<polygon fill="#FFFFFF" points="86.826,79.895 90.823,76.732 94.821,79.895 93.295,74.734 97.292,71.523 92.347,71.523 
			90.821,66.408 89.296,71.523 84.354,71.523 88.353,74.734 		"/>
		<polygon fill="#FFFFFF" points="63.059,66.408 61.533,71.523 56.591,71.523 60.59,74.734 59.063,79.873 63.061,76.719 
			67.059,79.891 65.532,74.73 69.529,71.523 64.584,71.523 		"/>
		<polygon fill="#FFFFFF" points="35.213,66.408 33.688,71.523 28.748,71.523 32.745,74.734 31.22,79.873 35.217,76.719 
			39.214,79.891 37.688,74.73 41.686,71.523 36.74,71.523 		"/>
		<polygon fill="#FFFFFF" points="114.671,54.1 118.668,50.934 122.667,54.1 121.141,49.463 125.138,46.781 120.191,46.781 
			118.667,41.666 117.142,46.781 112.199,46.781 116.198,49.463 		"/>
		<polygon fill="#FFFFFF" points="86.826,54.1 90.823,50.934 94.821,54.1 93.295,49.463 97.292,46.781 92.347,46.781 90.821,41.666 
			89.296,46.781 84.354,46.781 88.353,49.463 		"/>
		<polygon fill="#FFFFFF" points="64.205,45.027 61.483,46.359 58.872,47.744 60.59,49.043 59.063,54.127 63.061,50.947 
			67.059,54.105 65.532,49.467 69.529,46.781 64.584,46.781 		"/>
		<polygon fill="#FFFFFF" points="24,113.469 27.742,110.404 24,110.404 		"/>
		<polygon fill="#FFFFFF" points="24,117.395 24,117.777 25.273,118.783 24,114.52 		"/>
		<polygon fill="#FFFFFF" points="24,83.895 24,87.621 27.742,83.895 		"/>
		<polygon fill="#FFFFFF" points="24,88.672 24,91.93 25.273,92.937 		"/>
		<polygon fill="#FFFFFF" points="80.891,41.141 79.363,36.025 80.414,35.193 73.473,39.197 72.895,41.141 76.892,37.977 		"/>
		<polygon fill="#FFFFFF" points="114.671,28.102 118.668,24.939 122.667,28.102 121.141,23.213 125.138,20.271 120.191,20.271 
			118.667,15.156 117.142,20.271 112.199,20.271 116.198,23.213 		"/>
	</g>
</g>
</svg>
